setup_vision = yes
government = monarchy
add_government_reform = autocracy_reform
government_rank = 2
primary_culture = shandibad
religion = high_philosophy
technology_group = tech_raheni
religious_school = orange_sash_school
capital = 4397

1000.1.1 = { set_estate_privilege = estate_mages_organization_state }

1444.1.1 = {
	monarch = {
		name = "Ishnar VII"
		dynasty = "Jhuti"
		birth_date = 1410.11.4
		death_date = 1460.5.1
		adm = 1
		dip = 5
		mil = 3
	}
	add_ruler_personality = fierce_negotiator_personality
	heir = {
		name = "Mohri"
		monarch_name = "Mohri III"
		dynasty = "Jhuti"
		birth_date = 1443.6.27
		death_date = 1480.1.1
		claim = 95
		adm = 3
		dip = 2
		mil = 4
	}
	queen = {
		name = "Anokhi"
		dynasty = "Khalon"
		birth_date = 1413.1.25
		death_date = 1487.1.1
		female = yes
		adm = 3
		dip = 3
		mil = 1
	}
	add_queen_personality = fertile_personality
}