# No previous file for Banten
owner = F29
controller = F29
add_core = F29
culture = east_sandfang_gnoll
religion = xhazobkult

hre = no

base_tax = 1
base_production = 1
base_manpower = 2

trade_goods = incense

capital = ""

is_city = yes










