#376 - Connaught

owner = A33
controller = A33
add_core = A33
culture = vernman
religion = regent_court

hre = no

base_tax = 3
base_production = 3
base_manpower = 2

trade_goods = fish
center_of_trade = 1

capital = ""

is_city = yes







