#544 - Nobdenu (new city)

owner = F15
controller = F15
add_core = F15
culture = exodus_goblin
religion = goblinic_shamanism


base_tax = 1
base_production = 2
base_manpower = 2

trade_goods = wool

capital = ""

is_city = yes











add_permanent_province_modifier = {
	name = human_minority_integrated_large
	duration = -1
}