#545 - Forramaz

owner = F22
controller = F22
add_core = F22
culture = bahari
religion = bulwari_sun_cult

base_tax = 2
base_production = 3
base_manpower = 3

trade_goods = grain

capital = ""

is_city = yes











add_permanent_province_modifier = {
	name = elven_minority_oppressed_small
	duration = -1
}
