# No previous file for North Greatwood
owner = Z26
controller = Z26
add_core = Z26
culture = old_alenic
religion = regent_court

hre = no

base_tax = 2
base_production = 2
base_manpower = 1

trade_goods = fur

capital = ""

is_city = yes






